{
  "project_info": {
    "project_number": "877834475203",
    "firebase_url": "https://ihivn-29f86.firebaseio.com",
    "project_id": "ihivn-29f86",
    "storage_bucket": "ihivn-29f86.appspot.com"
  },
  "client": [
    {
      "client_info": {
        "mobilesdk_app_id": "1:877834475203:android:349c7523b898b06ce3f476",
        "android_client_info": {
          "package_name": "com.kteam.ihi"
        }
      },
      "oauth_client": [
        {
          "client_id": "877834475203-vua064pvt2aj846p4t0ak385s00t6cpb.apps.googleusercontent.com",
          "client_type": 1,
          "android_info": {
            "package_name": "com.kteam.ihi",
            "certificate_hash": "bc5c443bca1f1c6f3b9b3f82e350d02db26860e1"
          }
        },
        {
          "client_id": "877834475203-532me8dttdp4ch91rlh4doon9a85me1u.apps.googleusercontent.com",
          "client_type": 3
        }
      ],
      "api_key": [
        {
          "current_key": "AIzaSyAkR9UK9FWJG2YRkMmUWZqqfSiEl018wvs"
        }
      ],
      "services": {
        "appinvite_service": {
          "other_platform_oauth_client": [
            {
              "client_id": "877834475203-532me8dttdp4ch91rlh4doon9a85me1u.apps.googleusercontent.com",
              "client_type": 3
            }
          ]
        }
      }
    }
  ],
  "configuration_version": "1"
}