<?xml version="1.0" encoding="utf-8"?>
<!-- Generator: Adobe Illustrator 25.0.0, SVG Export Plug-In . SVG Version: 6.00 Build 0)  -->
<svg version="1.1" id="Layer_1" xmlns="http://www.w3.org/2000/svg" xmlns:xlink="http://www.w3.org/1999/xlink" x="0px" y="0px"
	 viewBox="0 0 30 30" style="enable-background:new 0 0 30 30;" xml:space="preserve">
<style type="text/css">
	.st0{fill:#D1E7FF;}
	.st1{fill:#E8F3FF;}
	.st2{fill:#B9DCFF;}
	.st3{fill:#2E58FF;}
</style>
<g id="hand" transform="translate(0 -0.276)">
	<circle id="Ellipse_32" class="st0" cx="16.4" cy="9.7" r="9"/>
	<path id="Path_606" class="st1" d="M16.7,0.7c0.6,0,1,0.5,1,1.1c0,0.5-0.3,0.9-0.8,1c-4.3,1-7.3,4.9-7,9.3c0,0.6-0.4,1.1-1,1.1
		c-0.5,0-0.9-0.3-1-0.7C6.4,7.7,9,2.6,13.7,1.1C14.7,0.8,15.7,0.7,16.7,0.7L16.7,0.7z"/>
	<path id="Path_607" class="st2" d="M15.1,18.5c-0.3,0-0.5-0.3-0.5-0.6c0-0.3,0.3-0.5,0.5-0.5c5,0,9-4,9-8.9c0,0,0-0.1,0-0.1
		c0-0.3,0.2-0.6,0.6-0.6c0.3,0,0.5,0.2,0.6,0.5c0.8,4.9-2.6,9.5-7.5,10.2C16.9,18.7,16,18.7,15.1,18.5z"/>
	<path id="Path_608" class="st0" d="M28.5,16.5l-7.2,7.2c-0.2,0.2-0.4,0.3-0.7,0.3c-10.3,0-9.8,0-9.8,0c0.8,0.8,0.8,2,0.1,2.8
		c0,0,0,0,0,0L9,28.7c-0.8,0.8-2,0.8-2.8,0l-4.6-4.6c-0.8-0.8-0.8-2,0-2.8c0,0,0,0,0,0l1.8-1.8c0.7-0.7,1.9-0.8,2.7-0.1l5.2-5.2
		c0.2-0.2,0.4-0.3,0.7-0.3h6.5c0.5,0,1,0.4,1,1c0,0.1,0,0.2,0,0.3c-0.5,1.8-2.1,3-3.9,3.2l5,0l4.9-4.8c0.8-0.8,2.2-0.8,3,0
		C29.3,14.3,29.3,15.7,28.5,16.5L28.5,16.5z"/>
	<path id="Path_609" class="st0" d="M6.2,19.5l4.6,4.6c0.8,0.8,0.8,2,0,2.8c0,0,0,0,0,0L9,28.7c-0.8,0.8-2,0.8-2.8,0l-4.6-4.6
		c-0.8-0.8-0.8-2,0-2.8c0,0,0,0,0,0l1.8-1.8C4.1,18.7,5.4,18.7,6.2,19.5C6.2,19.5,6.2,19.5,6.2,19.5z"/>
	<g id="Group_284" transform="translate(0.804 10.779)">
		<path id="Path_610" class="st1" d="M3.6,13l-0.1-0.1c-0.4-0.4-0.4-1,0-1.4c0.4-0.4,1-0.4,1.4,0l0.1,0.1c0.4,0.4,0.4,1,0,1.4
			C4.5,13.4,3.9,13.4,3.6,13L3.6,13L3.6,13z"/>
		<path id="Path_611" class="st1" d="M6.3,17.1c0.2,0.3,0.2,0.7,0,0.9c-0.2,0.2-0.6,0.2-0.9,0c-0.1-0.1,0.2,0.3-4.7-4.7
			c-0.8-0.8-0.8-2,0-2.8c0,0,0,0,0,0l1.8-1.8c0.2-0.3,0.6-0.4,0.9-0.2c0.3,0.2,0.4,0.6,0.2,0.9c0,0-0.1,0.1-0.1,0.1
			C3.3,9.8,3,10.1,2.6,10.5c-0.8,0.8-0.8,2,0,2.8c0,0,0,0,0,0C4.5,15.2,5.6,16.4,6.3,17.1z"/>
		<path id="Path_612" class="st1" d="M17.7,4.4h-5.3c-0.3,0-0.5,0.1-0.7,0.3L6.5,9.9C5.3,8.6,5.4,8.7,5.3,8.7l5.2-5.2
			c0.2-0.2,0.4-0.3,0.7-0.3c6.9,0,6.5,0,6.6,0c0.3,0,0.6,0.3,0.6,0.6C18.3,4.1,18.1,4.4,17.7,4.4z"/>
		<path id="Path_613" class="st1" d="M25.6,2.2c0.4-0.1,0.7,0.1,0.8,0.5C26.5,3,26.3,3.3,26,3.4c-0.6,0.2-0.3,0.1-5.6,5.3l-5.1,0
			c-0.3,0-0.6-0.3-0.6-0.7c0-0.3,0.3-0.6,0.6-0.6l4.5,0l4.9-4.8C24.9,2.4,25.2,2.2,25.6,2.2L25.6,2.2z"/>
	</g>
	<path id="Path_614" class="st2" d="M21.2,23.8c-0.2,0.2-0.4,0.3-0.7,0.3h-9.8L10,23.3h10c0.3,0,0.5-0.1,0.7-0.3l7.2-7.2
		c0.1-0.2,0.4-0.2,0.6-0.1c0.2,0.1,0.2,0.4,0.1,0.6l0,0C28.5,16.5,21.2,23.8,21.2,23.8z"/>
	<path id="Path_615" class="st3" d="M24.7,12.8l-4.6,4.5h-0.8c0.8-1,1.2-2.2,1.2-3.4c0-0.5-0.4-1-1-1l0,0H19c0.7-1.3,0.2-3-1.2-3.7
		c-0.1-0.1-0.2-0.1-0.4-0.2l-1.3-0.4c-0.3-0.1-0.5-0.4-0.6-0.8c0-0.5,0.5-0.8,0.9-0.8c0.4,0,0.8,0.4,0.8,0.8c0,0.5,0.4,1,1,1
		c0.5,0,1-0.4,1-1c0-1.2-0.7-2.2-1.8-2.6V4.4c0-0.5-0.4-1-1-1c-0.5,0-1,0.4-1,1v0.8c-1.4,0.5-2.2,2.1-1.7,3.5
		c0.3,0.8,0.9,1.4,1.7,1.7l1.3,0.4c0.4,0.1,0.7,0.6,0.5,1c-0.1,0.3-0.4,0.6-0.8,0.6h-0.1c-0.4,0-0.8-0.4-0.8-0.8c0-0.5-0.4-1-1-1
		s-1,0.4-1,1c0,0.4,0.1,0.9,0.3,1.3h-2.3c-0.3,0-0.5,0.1-0.7,0.3L10.2,14c-2.3-3.5-1.4-8.2,2.1-10.5s8.2-1.4,10.5,2.1
		C23.6,6.8,24,8.3,24,9.8c0,0.5,0.4,1,1,1s1-0.4,1-1c0-5.3-4.3-9.5-9.5-9.5c-5.3,0-9.5,4.3-9.5,9.5c0,2,0.6,4,1.8,5.6L6,18.2
		c-1.1-0.5-2.4-0.2-3.3,0.6l-1.8,1.8c-1.2,1.2-1.2,3,0,4.2l4.6,4.6c1.2,1.2,3,1.2,4.2,0c0,0,0,0,0,0l1.8-1.8c0.7-0.7,1-1.6,0.8-2.6
		H21c0.3,0,0.5-0.1,0.7-0.3l7.5-7.5c1.2-1.3,1.1-3.3-0.2-4.4C27.7,11.7,25.9,11.7,24.7,12.8L24.7,12.8z M10.1,26.3L8.3,28
		c-0.4,0.4-1.1,0.4-1.5,0c0,0,0,0,0,0l-4.6-4.6c-0.4-0.4-0.4-1.1,0-1.5l1.8-1.8c0.4-0.4,1-0.4,1.4-0.1c0,0-0.3-0.3,4.7,4.7
		C10.5,25.2,10.5,25.9,10.1,26.3z M27.8,15.9l-7.2,7.2h-9.4l-3.7-3.7l4.5-4.5h6.5c-0.4,1.4-1.6,2.4-3,2.5l-2,0c-0.5,0-1,0.4-1,1
		c0,0.5,0.4,1,1,1l0,0c0.3,0,7,0,7,0c0.3,0,0.5-0.1,0.7-0.3l4.9-4.8c0.5-0.5,1.2-0.5,1.7,0C28.3,14.6,28.3,15.4,27.8,15.9L27.8,15.9
		L27.8,15.9z M5.7,22.4c0.4,0.4,0.4,1,0,1.4c-0.4,0.4-1,0.4-1.4,0l-0.1-0.1c-0.4-0.4-0.4-1,0-1.4c0.4-0.4,1-0.4,1.4,0L5.7,22.4z"/>
</g>
</svg>
