<?xml version="1.0" encoding="UTF-8" standalone="no"?>
<svg
   xmlns:dc="http://purl.org/dc/elements/1.1/"
   xmlns:cc="http://creativecommons.org/ns#"
   xmlns:rdf="http://www.w3.org/1999/02/22-rdf-syntax-ns#"
   xmlns:svg="http://www.w3.org/2000/svg"
   xmlns="http://www.w3.org/2000/svg"
   xmlns:sodipodi="http://sodipodi.sourceforge.net/DTD/sodipodi-0.dtd"
   xmlns:inkscape="http://www.inkscape.org/namespaces/inkscape"
   version="1.1"
   id="Capa_1"
   x="0px"
   y="0px"
   viewBox="0 0 512 512"
   style="enable-background:new 0 0 512 512;"
   xml:space="preserve"
   sodipodi:docname="hourglass.svg"
   inkscape:version="1.0.1 (3bc2e813f5, 2020-09-07)"><metadata
   id="metadata43"><rdf:RDF><cc:Work
       rdf:about=""><dc:format>image/svg+xml</dc:format><dc:type
         rdf:resource="http://purl.org/dc/dcmitype/StillImage" /></cc:Work></rdf:RDF></metadata><defs
   id="defs41" /><sodipodi:namedview
   pagecolor="#ffffff"
   bordercolor="#666666"
   borderopacity="1"
   objecttolerance="10"
   gridtolerance="10"
   guidetolerance="10"
   inkscape:pageopacity="0"
   inkscape:pageshadow="2"
   inkscape:window-width="1920"
   inkscape:window-height="1017"
   id="namedview39"
   showgrid="false"
   inkscape:zoom="1.6601562"
   inkscape:cx="256"
   inkscape:cy="256"
   inkscape:window-x="-8"
   inkscape:window-y="-8"
   inkscape:window-maximized="1"
   inkscape:current-layer="Capa_1" />
<g
   id="g6">
	<g
   id="g4">
		<path
   d="M336.655,202.803c33.946-30.949,79.852-72.806,84.036-172.803H451V0H61v30h30.309    c4.184,99.997,50.09,141.854,84.036,172.803C198.116,223.564,211,236.271,211,256s-12.884,32.436-35.655,53.197    C141.399,340.146,95.493,382.003,91.309,482H61v30h390v-30h-30.309c-4.184-99.997-50.09-141.854-84.036-172.803    C313.884,288.436,301,275.729,301,256S313.884,223.564,336.655,202.803z M241,368.438c-4.633,0.956-9.21,2.347-13.677,4.195    l-91.877,38.019c15.004-38.15,39.17-60.193,60.111-79.285C218.927,310.06,241,289.935,241,256V368.438z M316.443,331.367    c20.941,19.092,45.106,41.135,60.111,79.284l-91.877-38.019c-4.467-1.848-9.044-3.239-13.677-4.195V256    C271,289.935,293.073,310.06,316.443,331.367z M134.919,100c-7.253-18.899-12.262-41.718-13.573-70h269.307    c-1.311,28.282-6.319,51.101-13.573,70H134.919z"
   id="path2" />
	</g>
</g>
<g
   id="g8">
</g>
<g
   id="g10">
</g>
<g
   id="g12">
</g>
<g
   id="g14">
</g>
<g
   id="g16">
</g>
<g
   id="g18">
</g>
<g
   id="g20">
</g>
<g
   id="g22">
</g>
<g
   id="g24">
</g>
<g
   id="g26">
</g>
<g
   id="g28">
</g>
<g
   id="g30">
</g>
<g
   id="g32">
</g>
<g
   id="g34">
</g>
<g
   id="g36">
</g>
<path
   style="fill:#A2A2A2;stroke:#009800;stroke-width:0.602353"
   d="m 61.44,497.24235 v -14.75764 h 15.058824 c 11.644183,0 15.059378,-0.17074 15.061273,-0.75295 0.01102,-3.38722 1.460097,-19.35816 2.434211,-26.82855 4.857531,-37.25201 16.982852,-69.634 36.175302,-96.6101 10.6282,-14.93855 21.01602,-26.18842 42.99395,-46.56186 18.24663,-16.91455 25.73815,-24.70859 30.21116,-31.43109 10.574,-15.89175 10.574,-32.70857 0,-48.60032 -4.47301,-6.7225 -11.96453,-14.51654 -30.21116,-31.43109 C 156.71293,185.01909 147.69347,175.83477 140.05059,166.55059 114.4426,135.44322 99.617278,100.21612 93.99769,57.122237 93.020915,49.631832 91.571133,33.66015 91.560097,30.268235 91.558202,29.686026 88.143007,29.515294 76.498824,29.515294 H 61.44 V 14.757647 0 H 256 450.56 v 14.757647 14.757647 h -15.05882 c -11.64418,0 -15.05938,0.170732 -15.06128,0.752941 -0.0102,3.124614 -1.47211,19.2595 -2.41522,26.655939 -4.69926,36.854017 -17.04581,69.868416 -36.19429,96.782716 -10.62657,14.93625 -21.37102,26.5665 -43.30141,46.87127 -23.92832,22.1546 -31.03038,30.39191 -34.98564,40.57797 -5.0635,13.04014 -3.3124,26.5281 5.08194,39.14403 4.45452,6.69471 11.95862,14.5058 29.89707,31.12013 8.11671,7.51758 17.83053,16.86708 21.58628,20.77668 36.87138,38.38185 55.31945,81.75248 59.6986,140.34891 0.34662,4.63812 0.63133,8.77177 0.63267,9.18588 0.002,0.58221 3.4171,0.75295 15.06128,0.75295 H 450.56 V 497.24235 512 H 256 61.44 Z m 120.57443,-105.4895 c 43.519,-18.03365 50.88764,-20.94431 56.9691,-22.50311 l 2.56,-0.65618 -0.0723,-56.14619 c -0.0398,-30.8804 -0.2904,-55.06196 -0.55691,-53.73678 -0.26653,1.32517 -0.78668,4.80069 -1.1559,7.72337 -2.36133,18.69182 -12.96298,35.37594 -36.16309,56.91088 -33.36533,30.97057 -43.1331,41.59443 -53.99825,58.73085 -6.02557,9.50348 -15.45566,28.72902 -14.09152,28.72902 0.29302,0 21.22203,-8.57334 46.50891,-19.05186 z m 192.94051,14.21022 c -6.63646,-15.50509 -16.18331,-30.86265 -27.32037,-43.94895 -5.90819,-6.94226 -17.50173,-18.4931 -32.08371,-31.96556 -7.83056,-7.23475 -16.6145,-15.72898 -19.51986,-18.87607 -15.35164,-16.62892 -22.53564,-30.90723 -24.31845,-48.33325 -0.32479,-3.17466 -0.74027,-5.92187 -0.9233,-6.10489 -0.18303,-0.18303 -0.33278,24.91042 -0.33278,55.76322 v 56.09599 l 2.56,0.64697 c 5.86255,1.48159 14.9859,5.09311 57.67529,22.83098 24.68142,10.25537 45.20384,18.66573 45.60539,18.68966 0.45085,0.0269 -0.0625,-1.80834 -1.34221,-4.7981 z m 5.0541,-313.351305 c 5.8633,-18.046362 9.16008,-35.755466 10.6529,-57.22353 l 0.40838,-5.872941 H 256.07163 121.07294 v 2.011489 c 0,3.909588 1.84094,21.277629 3.04281,28.706776 1.6172,9.99659 4.84625,23.298651 7.85973,32.378206 l 2.44901,7.378823 h 121.59357 121.59358 z"
   id="path868" /></svg>
